…
How many samples are in each of my meta-data groups?

``` r
# make wide data to make some calculations easier
metab_wide_meta <- metab_long_meta %>%
  dplyr::select(-mz, -rt) %>%
  pivot_wider(names_from = mz_rt,
              values_from = rel_abund)

# by sample vs QC
metab_wide_meta %>%
  count(sample)
```

    ## # A tibble: 116 × 2
    ##    sample         n
    ##    <chr>      <int>
    ##  1 1002_1_013     1
    ##  2 1003_1_014     1
    ##  3 1004_1_015     1
    ##  4 1005_1_016     1
    ##  5 1006_1_017     1
    ##  6 1007_1_018     1
    ##  7 1008_3_020     1
    ##  8 1009_3_021     1
    ##  9 1010_3_022     1
    ## 10 1011_3_023     1
    ## # ℹ 106 more rows
…
data_notame <- data_notame %>%
  tibble::rownames_to_column() %>% # change samples from rownames to its own column
  row_to_names(row_number = 1) # change the feature IDs (mz_rt) from first row obs into column names

# change to results to numeric
# it is important that the first row of data has the row number 2
# i don't know why this is but save yourself all the time maria/jess spent figuring out
# why this wasn't working
data_notame <- data_notame %>%
  mutate(across(-mz_rt, as.numeric))

tibble(data_notame)
```

    ## # A tibble: 116 × 3,946
    ##    mz_rt    `215.035_0.6816` `132.0314_0.6257` `146.0471_0.638` `223.047_0.6813`
    ##    <chr>               <dbl>             <dbl>            <dbl>            <dbl>
    ##  1 1002_1_…         7679077           6205564.         4960052.         4479680 
    ##  2 1005_1_…         7447086.          4927318.         2120450.         2886648.
    ##  3 1028_7_…         8276088           4093699.         1493171          3665020.
    ##  4 1006_1_…         8841574           4349956          4152962.         4198727 
    ##  5 1011_3_…         8093700.          1283594.          717827.         3046448.
    ##  6 1012_3_…         7780702.          3619702.          984710.         3364317.
    ##  7 1008_3_…         7552598.          4306122.         1110955.         3288646.
    ##  8 1003_1_…         7853164.          4434656          2269148.         3361332.
    ##  9 1004_1_…         8318853           4822632.         4202096.         4205750.
    ## 10 1010_3_…         8125583           2050616.         2020157.         3582409.
    ## # ℹ 106 more rows
    ## # ℹ 3,941 more variables: `277.0354_0.6491` <dbl>, `191.0559_0.7112` <dbl>,
    ## #   `217.0319_0.6659` <dbl>, `164.0727_2.5485` <dbl>, `317.0565_0.6744` <dbl>,
    ## #   `195.0524_0.6466` <dbl>, `111.0091_1.1441` <dbl>, `193.0369_0.6513` <dbl>,
    ## #   `205.0354_0.7258` <dbl>, `128.0358_1.2989` <dbl>, `175.0251_0.8885` <dbl>,
    ## #   `346.0577_1.0184` <dbl>, `253.0585_0.634` <dbl>, `209.0316_0.6497` <dbl>,
    ## #   `435.9603_1.1314` <dbl>, `128.9599_0.5843` <dbl>, …
…
## Assessing data quality

Let’s make sure that our data is of good quality.

### Untransformed data

First we are going to convert the type of some of the columns to match
what we want (e.g., run order converted to numeric, species to factor)

``` r
tibble(metab_imputed_clustered_long)
```

    ## # A tibble: 258,796 × 16
    ##    plot  sample qc_batch run_order accession   rep species tarapoto color bitter
    ##    <chr> <chr>  <chr>    <chr>     <chr>     <dbl> <chr>   <chr>    <chr> <chr> 
    ##  1 1002  1002_… 1        013       LA2303        1 SL      Y        R     UNK   
    ##  2 1002  1002_… 1        013       LA2303        1 SL      Y        R     UNK   
    ##  3 1002  1002_… 1        013       LA2303        1 SL      Y        R     UNK   
    ##  4 1002  1002_… 1        013       LA2303        1 SL      Y        R     UNK   
    ##  5 1002  1002_… 1        013       LA2303        1 SL      Y        R     UNK   
    ##  6 1002  1002_… 1        013       LA2303        1 SL      Y        R     UNK   
    ##  7 1002  1002_… 1        013       LA2303        1 SL      Y        R     UNK   
    ##  8 1002  1002_… 1        013       LA2303        1 SL      Y        R     UNK   
    ##  9 1002  1002_… 1        013       LA2303        1 SL      Y        R     UNK   
    ## 10 1002  1002_… 1        013       LA2303        1 SL      Y        R     UNK   
    ## # ℹ 258,786 more rows
    ## # ℹ 6 more variables: selected <chr>, sample_or_qc <chr>, mz <dbl>, rt <dbl>,
    ## #   mz_rt <chr>, rel_abund <dbl>
…
